2017-05-24 09:53:34___admin  login
2017-05-24 09:56:56___admin  login
2017-05-24 10:01:24___admin  login
2017-05-24 10:40:07___admin  login
2017-05-24 11:01:46___admin  login
2017-05-24 11:03:24___admin  login
2017-05-24 11:21:11___admin  login
2017-05-24 11:21:38___admin  login
2017-05-24 11:22:24___admin  login
2017-05-24 11:26:37___admin  login
2017-05-24 11:31:52___admin  login
2017-05-24 11:43:54___admin  login
2017-05-24 11:46:11___admin  login
2017-05-24 14:12:58___admin  login
2017-05-24 15:03:58___admin  login
2017-05-24 15:56:06___admin  login
2017-05-24 15:56:29___admin  login
2017-05-24 15:58:13___admin  login
2017-05-24 16:02:21___admin  login
2017-05-24 16:09:47___admin  login
2017-05-24 16:11:17___admin  login
2017-05-24 16:12:28___admin  login
2017-05-24 16:21:29___admin  login
2017-05-24 16:22:15___admin  login
2017-05-24 16:29:23___admin  login
2017-05-24 16:32:13___admin  login
2017-05-24 16:48:25___admin  login
2017-05-24 16:50:57___admin  login
2017-05-24 16:52:38___admin  login
2017-05-24 17:12:39___admin  login
2017-05-24 17:23:52___admin  login
2017-05-24 17:29:24___admin  login
2017-05-24 17:31:06___admin  login
2017-05-24 17:32:02___admin  login
2017-05-24 17:34:47___admin  login
2017-05-24 17:41:50___admin  login
2017-05-24 17:45:09___admin  login
2017-05-24 17:59:48___admin  login
2017-05-24 18:38:15___admin  login
2017-05-24 18:47:39___Hongtai222  login
2017-05-24 18:50:06___admin  login
2017-05-24 18:57:04___admin  login
2017-05-24 19:55:15___admin  login
2017-05-24 20:06:32___admin  login
2017-05-24 20:11:59___路路  login
2017-05-24 20:12:57___admin  login
2017-05-24 20:47:14___admin  login
2017-05-24 21:39:56___admin  login
2017-05-24 21:45:34___admin  login
2017-05-24 22:44:27___admin  login
2017-05-24 22:51:07___admin  login
2017-05-24 23:46:58___admin  login
