2017-03-19 10:14:08___admin  login
2017-03-19 10:15:21___admin  login
2017-03-19 10:18:52___admin  login
2017-03-19 10:40:40___admin  login
2017-03-19 11:10:43___admin  login
2017-03-19 11:13:21___admin  login
2017-03-19 11:26:11___admin  login
2017-03-19 11:26:41___admin  login
2017-03-19 11:27:50___admin  login
2017-03-19 11:30:57___admin  login
2017-03-19 21:58:57___admin  login
2017-03-19 22:22:36___admin  login
2017-03-19 22:40:01___admin  login
2017-03-19 23:09:12___admin  login
