2017-06-03 00:20:20___admin  login
2017-06-03 00:48:46___admin  login
2017-06-03 01:35:28___admin  login
2017-06-03 01:53:42___admin  login
2017-06-03 02:08:27___admin  login
2017-06-03 02:10:39___admin  login
2017-06-03 02:30:28___admin  login
2017-06-03 02:45:16___admin  login
2017-06-03 03:19:23___admin  login
2017-06-03 03:31:42___admin  login
2017-06-03 04:04:21___admin  login
2017-06-03 05:17:26___admin  login
2017-06-03 05:34:18___admin  login
2017-06-03 05:35:43___admin  login
2017-06-03 05:44:34___admin  login
2017-06-03 05:56:03___admin  login
2017-06-03 06:14:28___admin  login
2017-06-03 06:15:18___admin  login
2017-06-03 06:15:54___admin  login
2017-06-03 06:16:19___admin  login
2017-06-03 06:18:53___admin  login
2017-06-03 06:22:09___admin  login
2017-06-03 06:24:54___admin  login
2017-06-03 06:25:57___admin  login
2017-06-03 06:33:46___admin  login
2017-06-03 06:50:24___admin  login
2017-06-03 06:51:18___admin  login
2017-06-03 06:53:42___admin  login
2017-06-03 06:55:21___admin  login
2017-06-03 07:25:16___admin  login
2017-06-03 07:27:24___admin  login
2017-06-03 07:38:25___admin  login
2017-06-03 07:42:52___admin  login
2017-06-03 07:45:18___admin  login
2017-06-03 07:59:41___admin  login
2017-06-03 08:13:21___路路  login
2017-06-03 08:15:42___admin  login
2017-06-03 08:22:03___admin  login
2017-06-03 08:23:06___admin  login
2017-06-03 08:25:49___admin  login
2017-06-03 08:28:15___admin  login
2017-06-03 08:29:42___Hongtai222  login
2017-06-03 08:30:21___admin  login
2017-06-03 08:45:25___admin  login
2017-06-03 08:49:39___admin  login
2017-06-03 09:06:34___admin  login
2017-06-03 09:32:09___admin  login
2017-06-03 11:10:44___admin  login
2017-06-03 11:13:25___admin  login
2017-06-03 11:15:09___admin  login
2017-06-03 11:23:17___admin  login
2017-06-03 11:24:46___admin  login
2017-06-03 11:33:45___admin  login
2017-06-03 11:35:59___Hongtai222  login
2017-06-03 14:50:23___admin  login
2017-06-03 15:48:15___admin  login
2017-06-03 16:28:39___admin  login
2017-06-03 16:35:38___Hongtai222  login
2017-06-03 16:50:25___admin  login
2017-06-03 16:59:15___admin  login
2017-06-03 17:08:29___admin  login
2017-06-03 17:14:31___admin  login
2017-06-03 17:22:43___admin  login
2017-06-03 17:47:20___admin  login
2017-06-03 17:50:47___admin  login
2017-06-03 17:58:19___admin  login
2017-06-03 18:14:06___admin  login
2017-06-03 18:16:13___admin  login
2017-06-03 19:14:16___admin  login
2017-06-03 19:14:35___Admin9  login
2017-06-03 19:39:52___admin  login
2017-06-03 19:58:20___admin  login
2017-06-03 21:02:14___Admin9  login
2017-06-03 21:22:45___admin  login
2017-06-03 21:23:31___Admin9  login
2017-06-03 21:42:33___admin  login
2017-06-03 22:59:05___admin  login
2017-06-03 23:40:48___admin  login
2017-06-03 23:50:49___admin  login
