2017-04-18 00:18:31___admin  login
2017-04-18 09:28:34___admin  login
2017-04-18 11:45:18___admin  login
2017-04-18 12:08:28___admin  login
2017-04-18 12:09:29___admin  login
2017-04-18 12:10:16___admin  login
2017-04-18 13:08:03___admin  login
2017-04-18 13:13:38___admin  login
2017-04-18 13:14:38___admin  login
2017-04-18 13:16:34___admin  login
2017-04-18 13:17:11___admin  login
2017-04-18 13:18:36___admin  login
2017-04-18 13:25:44___admin  login
2017-04-18 14:24:43___admin  login
2017-04-18 14:39:20___admin  login
2017-04-18 14:50:05___小胖  login
2017-04-18 14:55:09___admin  login
2017-04-18 14:57:26___admin  login
2017-04-18 19:48:47___admin  login
2017-04-18 19:50:55___admin  login
