2017-03-27 08:52:45___admin  login
2017-03-27 09:06:29___admin  login
2017-03-27 09:07:31___admin  login
2017-03-27 10:02:23___admin  login
2017-03-27 10:03:34___admin  login
2017-03-27 10:04:56___admin  login
2017-03-27 11:46:32___admin  login
2017-03-27 11:49:14___admin  login
2017-03-27 11:59:55___admin  login
2017-03-27 12:21:08___admin  login
2017-03-27 15:05:27___admin  login
2017-03-27 15:23:16___admin  login
2017-03-27 15:24:49___admin  login
2017-03-27 16:52:46___admin  login
2017-03-27 16:54:45___admin  login
2017-03-27 16:55:51___admin  login
2017-03-27 17:09:04___admin  login
2017-03-27 17:27:35___admin  login
2017-03-27 17:34:07___admin  login
2017-03-27 17:37:08___admin  login
2017-03-27 17:44:54___admin  login
2017-03-27 17:49:55___admin  login
2017-03-27 17:52:22___admin  login
2017-03-27 17:56:56___admin  login
2017-03-27 20:59:55___admin  login
2017-03-27 21:00:42___admin  login
2017-03-27 21:07:05___admin  login
2017-03-27 21:12:01___admin  login
2017-03-27 21:13:46___admin  login
2017-03-27 21:17:04___admin  login
2017-03-27 21:19:39___admin  login
2017-03-27 21:21:58___admin  login
2017-03-27 21:23:07___admin  login
2017-03-27 21:28:16___admin  login
2017-03-27 21:29:00___admin  login
2017-03-27 21:33:18___admin  login
2017-03-27 21:38:17___admin  login
2017-03-27 21:39:30___admin  login
2017-03-27 21:40:04___admin  login
2017-03-27 21:40:57___admin  login
2017-03-27 21:42:54___admin  login
2017-03-27 22:02:57___admin  login
2017-03-27 22:04:25___admin  login
2017-03-27 22:06:30___admin  login
2017-03-27 22:07:18___admin  login
2017-03-27 22:12:51___admin  login
2017-03-27 22:17:01___admin  login
2017-03-27 22:22:04___admin  login
2017-03-27 22:22:30___admin  login
2017-03-27 23:02:47___admin  login
2017-03-27 23:04:25___admin  login
2017-03-27 23:06:32___admin  login
2017-03-27 23:08:24___admin  login
2017-03-27 23:11:46___MyGod  login
2017-03-27 23:19:14___MyGod  login
2017-03-27 23:22:14___MyGod  login
2017-03-27 23:22:40___admin  login
2017-03-27 23:27:09___MyGod  login
2017-03-27 23:27:29___MyGod  login
2017-03-27 23:27:41___admin  login
2017-03-27 23:28:12___admin  login
2017-03-27 23:28:19___MyGod  login
2017-03-27 23:36:27___MyGod  login
2017-03-27 23:36:44___admin  login
2017-03-27 23:37:26___MyGod  login
2017-03-27 23:39:12___MyGod  login
2017-03-27 23:39:20___admin  login
2017-03-27 23:41:53___admin  login
2017-03-27 23:45:58___admin  login
