2017-06-06 00:18:03___admin  login
2017-06-06 00:21:52___admin  login
2017-06-06 00:24:38___Admin9  login
2017-06-06 02:03:32___admin  login
2017-06-06 02:49:17___admin  login
2017-06-06 05:13:53___admin  login
2017-06-06 09:45:35___admin  login
2017-06-06 10:28:35___admin  login
2017-06-06 10:33:52___admin  login
2017-06-06 10:34:26___admin  login
2017-06-06 10:35:34___admin  login
2017-06-06 10:36:12___admin  login
2017-06-06 10:37:51___admin  login
2017-06-06 12:10:00___admin  login
2017-06-06 12:13:51___Admin9  login
2017-06-06 12:15:15___Admin9  login
2017-06-06 12:19:06___admin  login
2017-06-06 12:19:27___Admin9  login
2017-06-06 12:19:50___admin  login
2017-06-06 12:23:10___admin  login
2017-06-06 12:23:44___Admin9  login
2017-06-06 12:25:46___admin  login
2017-06-06 12:28:17___admin  login
2017-06-06 12:28:38___Admin9  login
2017-06-06 12:29:08___admin  login
2017-06-06 12:29:48___Admin9  login
2017-06-06 12:30:21___admin  login
2017-06-06 12:30:42___Admin9  login
2017-06-06 12:31:39___admin  login
2017-06-06 15:27:32___admin  login
2017-06-06 15:28:06___admin  login
2017-06-06 15:29:44___admin  login
2017-06-06 15:32:59___admin  login
2017-06-06 15:35:20___testsharedholder  login
2017-06-06 15:39:28___testsharedholder  login
2017-06-06 15:39:47___admin  login
2017-06-06 15:40:01___admin  login
2017-06-06 15:40:45___admin  login
2017-06-06 15:41:06___testsharedholder  login
2017-06-06 15:44:46___admin  login
2017-06-06 15:46:23___testsharedholder  login
2017-06-06 15:50:46___testsharedholder  login
2017-06-06 15:51:34___admin  login
2017-06-06 15:52:15___testsharedholder  login
2017-06-06 15:52:38___admin  login
2017-06-06 16:27:49___admin  login
2017-06-06 16:59:53___admin  login
2017-06-06 17:06:32___admin  login
2017-06-06 17:39:22___admin  login
2017-06-06 17:44:54___admin  login
2017-06-06 17:46:40___admin  login
2017-06-06 17:50:50___admin  login
2017-06-06 17:57:41___admin  login
2017-06-06 17:58:07___admin  login
2017-06-06 18:25:40___admin  login
2017-06-06 19:28:00___admin  login
2017-06-06 19:32:50___admin  login
2017-06-06 19:35:30___admin  login
2017-06-06 19:36:53___admin  login
2017-06-06 19:38:23___admin  login
2017-06-06 22:05:45___admin  login
