2017-05-30 09:02:21___admin  login
2017-05-30 10:44:40___admin  login
2017-05-30 12:35:40___admin  login
2017-05-30 16:00:41___admin  login
2017-05-30 20:19:40___admin  login
2017-05-30 20:55:02___admin  login
2017-05-30 20:55:15___admin  login
2017-05-30 21:12:22___admin  login
2017-05-30 21:50:48___admin  login
