2017-05-11 05:38:44___admin  login
2017-05-11 07:58:51___admin  login
2017-05-11 10:13:45___admin  login
2017-05-11 10:21:50___admin  login
2017-05-11 10:22:28___admin  login
2017-05-11 10:23:48___admin  login
2017-05-11 12:15:16___admin  login
2017-05-11 12:43:53___admin  login
2017-05-11 12:44:11___admin  login
2017-05-11 13:47:24___admin  login
2017-05-11 14:02:47___admin  login
2017-05-11 14:03:30___admin  login
2017-05-11 14:13:40___admin  login
2017-05-11 14:30:57___admin  login
2017-05-11 14:31:32___admin  login
2017-05-11 14:51:13___admin  login
2017-05-11 14:57:23___admin  login
2017-05-11 15:15:41___admin  login
2017-05-11 15:39:34___admin  login
2017-05-11 15:40:07___admin  login
2017-05-11 15:43:08___admin  login
2017-05-11 15:43:15___admin  login
2017-05-11 16:05:24___admin  login
2017-05-11 16:05:55___admin  login
2017-05-11 16:23:27___admin  login
2017-05-11 16:25:18___admin  login
2017-05-11 16:33:10___admin  login
2017-05-11 16:34:31___admin  login
2017-05-11 16:40:48___admin  login
2017-05-11 16:42:32___admin  login
2017-05-11 16:43:43___admin  login
2017-05-11 16:45:01___admin  login
2017-05-11 16:46:51___admin  login
2017-05-11 16:48:35___admin  login
2017-05-11 16:55:25___admin  login
2017-05-11 16:57:17___admin  login
2017-05-11 16:59:37___admin  login
2017-05-11 17:11:46___admin  login
2017-05-11 17:16:09___admin  login
2017-05-11 17:22:52___admin  login
2017-05-11 17:29:17___admin  login
2017-05-11 17:30:33___admin  login
2017-05-11 17:46:56___admin  login
2017-05-11 17:49:44___admin  login
2017-05-11 17:50:22___admin  login
2017-05-11 18:11:30___麻哥01  login
2017-05-11 18:13:53___admin  login
2017-05-11 18:47:51___admin  login
2017-05-11 20:27:18___admin  login
2017-05-11 21:35:48___admin  login
2017-05-11 21:38:09___Hongtai222  login
2017-05-11 21:40:52___Hongtai222  login
2017-05-11 21:42:37___Hongtai222  login
2017-05-11 21:44:49___admin  login
2017-05-11 21:45:43___Hongtai222  login
